[gd_scene load_steps=2 format=3 uid="uid://d2jldhf3wmd6c"]

[ext_resource type="Script" path="res://scripts/cs/Main.cs" id="1_xi6b5"]

[node name="Main" type="Node2D"]
script = ExtResource("1_xi6b5")
