Help and support
-----------
TODO

Background and objects
-----------
TODO

Player
-----------
TODO


Enemy and Bosses
-----------
TODO

Projectiles and Visual FX
-----------
TODO


Visual FX
-----------
TODO


Tiles
-----------
TODO


Sounds
-----------
TODO

Musics
-----------
TODO
