; Engine configuration file.
; It's best edited using the editor UI and not directly,
; since the parameters that go here are not all obvious.
;
; Format:
;   [section] ; section goes between []
;   param=value ; assign values to parameters

config_version=5

[addons]

logger/use_utc_time_format=true

[application]

config/name="GodotCSSkeleton"
run/main_scene="res://scenes/main.tscn"
config/features=PackedStringArray("4.2", "C#")
run/flush_stdout_on_print=true
config/icon="res://icon.png"

[autoload]

Log="*res://addons/logger/logger.gd"

[debug]

settings/stdout/verbose_stdout=true
gdscript/warnings/unsafe_property_access=1
gdscript/warnings/unsafe_cast=1
gdscript/warnings/unsafe_call_argument=1
gdscript/warnings/return_value_discarded=1
multirun/number_of_windows=2
multirun/add_custom_args=true
multirun/window_args=["listen", "join"]

[display]

window/size/viewport_width=1280
window/size/viewport_height=720
window/size/always_on_top=true
window/size/extend_to_title=true
window/size/window_width_override=1280
window/size/window_height_override=720
window/stretch/mode="canvas_items"

[dotnet]

project/assembly_name="GodotCSSkeleton"
version_control/plugin_name="GitPlugin"
version_control/autoload_on_startup=true

[editor]

version_control/plugin_name="GitPlugin"
version_control/autoload_on_startup=true

[editor_plugins]

enabled=PackedStringArray("res://addons/Asset_Drawer/plugin.cfg", "res://addons/FileSystemView/plugin.cfg", "res://addons/Todo_Manager/plugin.cfg", "res://addons/anthonyec.camera_preview/plugin.cfg", "res://addons/gd-plug-ui/plugin.cfg", "res://addons/gdLinter/plugin.cfg", "res://addons/gdscript_formatter/plugin.cfg", "res://addons/godot_style/plugin.cfg", "res://addons/logger/plugin.cfg", "res://addons/m_gdlib/plugin.cfg", "res://addons/markdownlabel/plugin.cfg", "res://addons/multirun/plugin.cfg", "res://addons/notes_tab/plugin.cfg", "res://addons/open-external-editor/plugin.cfg", "res://addons/plugin_refresher/plugin.cfg", "res://addons/previous-tab/plugin.cfg", "res://addons/script-ide/plugin.cfg")

[file_customization]

folder_colors={
"res://addons/": "gray",
"res://assets/": "orange",
"res://assets/00_raw/": "gray",
"res://resources/": "purple",
"res://scenes/": "blue",
"res://scripts/": "green",
"res://scripts/cs/": "teal"
}

[filesystem]

import/blender/enabled=false

[physics]

2d/physics_engine="GodotPhysics2D"
3d/physics_engine="JoltPhysics3D"

[rendering]

textures/canvas_textures/default_texture_filter=0
renderer/rendering_method="gl_compatibility"
quality/2d/use_pixel_snap=true
